G04 EAGLE Gerber X2 export*
G75*
%MOMM*%
%FSLAX34Y34*%
%LPD*%
%AMOC8*
5,1,8,0,0,1.08239X$1,22.5*%
G01*
%ADD10C,0.304800*%
%ADD11R,0.980000X0.780000*%
%ADD12R,0.889000X0.406400*%
%ADD13R,0.812800X0.711200*%
%ADD14R,1.470000X0.620000*%
%ADD15C,0.162500*%
%ADD16C,0.225000*%
%ADD17C,0.287500*%
%ADD18C,0.400000*%
%ADD19R,1.200000X5.000000*%
%ADD20R,2.700000X1.150000*%
%ADD21R,0.780000X0.980000*%
%ADD22R,2.100000X4.300000*%
%ADD23R,0.406400X0.889000*%
%ADD24R,1.000000X0.400000*%
%ADD25R,0.800000X0.600000*%
%ADD26R,1.778000X1.270000*%
%ADD27R,1.150000X1.450000*%
%ADD28R,1.450000X1.150000*%
%ADD29R,1.525000X0.650000*%
%ADD30R,1.300000X0.600000*%
%ADD31R,7.289800X2.590800*%
%ADD32R,3.600000X1.500000*%
%ADD33R,2.500000X2.000000*%
%ADD34R,0.800000X0.900000*%
%ADD35R,0.800000X0.950000*%
%ADD36R,0.800000X0.800000*%
%ADD37C,0.150000*%
%ADD38R,1.000000X0.850000*%
%ADD39R,0.600000X0.700000*%
%ADD40R,0.700000X0.600000*%
%ADD41R,0.850000X1.000000*%
%ADD42R,0.799997X0.755600*%
%ADD43C,0.275000*%
%ADD44C,0.200000*%
%ADD45R,0.900000X0.950000*%
%ADD46R,1.199997X1.005600*%
%ADD47R,1.346200X0.863600*%
%ADD48R,1.500000X2.500000*%
%ADD49R,1.200000X0.600000*%
%ADD50R,0.700000X1.200000*%
%ADD51R,0.355600X1.361441*%
%ADD52C,0.330000*%
%ADD53R,1.100000X0.600000*%
%ADD54R,1.473200X0.355600*%
%ADD55R,0.600000X2.200000*%
%ADD56R,1.200000X0.700000*%
%ADD57C,0.350000*%
%ADD58R,0.460000X0.420000*%
%ADD59R,0.420000X0.440000*%
%ADD60R,0.900000X1.500000*%
%ADD61R,1.803400X0.406400*%
%ADD62R,1.820000X0.820000*%
%ADD63R,0.820000X1.820000*%
%ADD64R,4.216400X1.803400*%
%ADD65R,0.365000X0.330000*%
%ADD66R,0.330000X0.365000*%
%ADD67R,0.420000X0.460000*%

G36*
X590618Y661375D02*
X590618Y661375D01*
X590620Y661374D01*
X590663Y661394D01*
X590707Y661412D01*
X590708Y661414D01*
X590710Y661415D01*
X590743Y661500D01*
X590743Y673216D01*
X590742Y673218D01*
X590743Y673220D01*
X590723Y673263D01*
X590704Y673307D01*
X590702Y673307D01*
X590701Y673309D01*
X590616Y673342D01*
X576784Y673342D01*
X576782Y673341D01*
X576780Y673342D01*
X576737Y673322D01*
X576693Y673304D01*
X576692Y673302D01*
X576690Y673301D01*
X576657Y673216D01*
X576657Y661500D01*
X576658Y661498D01*
X576657Y661496D01*
X576677Y661453D01*
X576696Y661409D01*
X576698Y661409D01*
X576699Y661407D01*
X576784Y661374D01*
X590616Y661374D01*
X590618Y661375D01*
G37*
G36*
X590618Y647659D02*
X590618Y647659D01*
X590620Y647658D01*
X590663Y647678D01*
X590707Y647696D01*
X590708Y647698D01*
X590710Y647699D01*
X590743Y647784D01*
X590743Y659500D01*
X590742Y659502D01*
X590743Y659504D01*
X590723Y659547D01*
X590704Y659591D01*
X590702Y659591D01*
X590701Y659593D01*
X590616Y659626D01*
X576784Y659626D01*
X576782Y659625D01*
X576780Y659626D01*
X576737Y659606D01*
X576693Y659588D01*
X576692Y659586D01*
X576690Y659585D01*
X576657Y659500D01*
X576657Y647784D01*
X576658Y647782D01*
X576657Y647780D01*
X576677Y647737D01*
X576696Y647693D01*
X576698Y647693D01*
X576699Y647691D01*
X576784Y647658D01*
X590616Y647658D01*
X590618Y647659D01*
G37*
G36*
X606451Y661375D02*
X606451Y661375D01*
X606453Y661374D01*
X606496Y661394D01*
X606540Y661412D01*
X606540Y661414D01*
X606542Y661415D01*
X606575Y661500D01*
X606575Y673216D01*
X606574Y673218D01*
X606575Y673220D01*
X606555Y673263D01*
X606537Y673307D01*
X606535Y673307D01*
X606534Y673309D01*
X606449Y673342D01*
X592616Y673342D01*
X592614Y673341D01*
X592612Y673342D01*
X592569Y673322D01*
X592526Y673304D01*
X592525Y673302D01*
X592523Y673301D01*
X592490Y673216D01*
X592490Y661500D01*
X592491Y661498D01*
X592490Y661496D01*
X592510Y661453D01*
X592529Y661409D01*
X592531Y661409D01*
X592531Y661407D01*
X592616Y661374D01*
X606449Y661374D01*
X606451Y661375D01*
G37*
G36*
X574786Y661375D02*
X574786Y661375D01*
X574788Y661374D01*
X574831Y661394D01*
X574874Y661412D01*
X574875Y661414D01*
X574877Y661415D01*
X574910Y661500D01*
X574910Y673216D01*
X574909Y673218D01*
X574910Y673220D01*
X574890Y673263D01*
X574872Y673307D01*
X574869Y673307D01*
X574869Y673309D01*
X574784Y673342D01*
X560951Y673342D01*
X560949Y673341D01*
X560947Y673342D01*
X560904Y673322D01*
X560860Y673304D01*
X560860Y673302D01*
X560858Y673301D01*
X560825Y673216D01*
X560825Y661500D01*
X560826Y661498D01*
X560825Y661496D01*
X560845Y661453D01*
X560863Y661409D01*
X560865Y661409D01*
X560866Y661407D01*
X560951Y661374D01*
X574784Y661374D01*
X574786Y661375D01*
G37*
G36*
X606451Y647659D02*
X606451Y647659D01*
X606453Y647658D01*
X606496Y647678D01*
X606540Y647696D01*
X606540Y647698D01*
X606542Y647699D01*
X606575Y647784D01*
X606575Y659500D01*
X606574Y659502D01*
X606575Y659504D01*
X606555Y659547D01*
X606537Y659591D01*
X606535Y659591D01*
X606534Y659593D01*
X606449Y659626D01*
X592616Y659626D01*
X592614Y659625D01*
X592612Y659626D01*
X592569Y659606D01*
X592526Y659588D01*
X592525Y659586D01*
X592523Y659585D01*
X592490Y659500D01*
X592490Y647784D01*
X592491Y647782D01*
X592490Y647780D01*
X592510Y647737D01*
X592529Y647693D01*
X592531Y647693D01*
X592531Y647691D01*
X592616Y647658D01*
X606449Y647658D01*
X606451Y647659D01*
G37*
G36*
X574786Y647659D02*
X574786Y647659D01*
X574788Y647658D01*
X574831Y647678D01*
X574874Y647696D01*
X574875Y647698D01*
X574877Y647699D01*
X574910Y647784D01*
X574910Y659500D01*
X574909Y659502D01*
X574910Y659504D01*
X574890Y659547D01*
X574872Y659591D01*
X574869Y659591D01*
X574869Y659593D01*
X574784Y659626D01*
X560951Y659626D01*
X560949Y659625D01*
X560947Y659626D01*
X560904Y659606D01*
X560860Y659588D01*
X560860Y659586D01*
X560858Y659585D01*
X560825Y659500D01*
X560825Y647784D01*
X560826Y647782D01*
X560825Y647780D01*
X560845Y647737D01*
X560863Y647693D01*
X560865Y647693D01*
X560866Y647691D01*
X560951Y647658D01*
X574784Y647658D01*
X574786Y647659D01*
G37*
D10*
X110761Y1051524D02*
X110761Y1086576D01*
X120497Y1086576D02*
X101024Y1086576D01*
X127694Y1076839D02*
X127694Y1061261D01*
X127694Y1076839D02*
X127697Y1077076D01*
X127706Y1077313D01*
X127720Y1077550D01*
X127740Y1077786D01*
X127766Y1078022D01*
X127798Y1078257D01*
X127835Y1078491D01*
X127878Y1078724D01*
X127927Y1078956D01*
X127981Y1079187D01*
X128041Y1079416D01*
X128107Y1079644D01*
X128178Y1079870D01*
X128254Y1080095D01*
X128336Y1080317D01*
X128424Y1080538D01*
X128517Y1080756D01*
X128615Y1080972D01*
X128718Y1081185D01*
X128826Y1081396D01*
X128940Y1081604D01*
X129058Y1081810D01*
X129182Y1082012D01*
X129310Y1082212D01*
X129444Y1082408D01*
X129582Y1082601D01*
X129724Y1082790D01*
X129871Y1082976D01*
X130023Y1083158D01*
X130179Y1083337D01*
X130340Y1083511D01*
X130504Y1083682D01*
X130673Y1083849D01*
X130845Y1084011D01*
X131022Y1084169D01*
X131203Y1084323D01*
X131387Y1084473D01*
X131574Y1084618D01*
X131765Y1084758D01*
X131960Y1084894D01*
X132158Y1085024D01*
X132359Y1085150D01*
X132563Y1085271D01*
X132769Y1085388D01*
X132979Y1085499D01*
X133191Y1085604D01*
X133406Y1085705D01*
X133623Y1085800D01*
X133842Y1085890D01*
X134064Y1085975D01*
X134287Y1086054D01*
X134512Y1086128D01*
X134740Y1086197D01*
X134968Y1086259D01*
X135198Y1086317D01*
X135430Y1086368D01*
X135662Y1086414D01*
X135896Y1086454D01*
X136131Y1086489D01*
X136366Y1086518D01*
X136602Y1086541D01*
X136839Y1086558D01*
X137075Y1086570D01*
X137312Y1086575D01*
X137550Y1086575D01*
X137787Y1086570D01*
X138023Y1086558D01*
X138260Y1086541D01*
X138496Y1086518D01*
X138731Y1086489D01*
X138966Y1086454D01*
X139200Y1086414D01*
X139432Y1086368D01*
X139664Y1086317D01*
X139894Y1086259D01*
X140122Y1086197D01*
X140350Y1086128D01*
X140575Y1086054D01*
X140798Y1085975D01*
X141020Y1085890D01*
X141239Y1085800D01*
X141456Y1085705D01*
X141671Y1085604D01*
X141883Y1085499D01*
X142093Y1085388D01*
X142300Y1085271D01*
X142503Y1085150D01*
X142704Y1085024D01*
X142902Y1084894D01*
X143097Y1084758D01*
X143288Y1084618D01*
X143475Y1084473D01*
X143659Y1084323D01*
X143840Y1084169D01*
X144017Y1084011D01*
X144189Y1083849D01*
X144358Y1083682D01*
X144522Y1083511D01*
X144683Y1083337D01*
X144839Y1083158D01*
X144991Y1082976D01*
X145138Y1082790D01*
X145280Y1082601D01*
X145418Y1082408D01*
X145552Y1082212D01*
X145680Y1082012D01*
X145804Y1081810D01*
X145922Y1081604D01*
X146036Y1081396D01*
X146144Y1081185D01*
X146247Y1080972D01*
X146345Y1080756D01*
X146438Y1080538D01*
X146526Y1080317D01*
X146608Y1080095D01*
X146684Y1079870D01*
X146755Y1079644D01*
X146821Y1079416D01*
X146881Y1079187D01*
X146935Y1078956D01*
X146984Y1078724D01*
X147027Y1078491D01*
X147064Y1078257D01*
X147096Y1078022D01*
X147122Y1077786D01*
X147142Y1077550D01*
X147156Y1077313D01*
X147165Y1077076D01*
X147168Y1076839D01*
X147167Y1076839D02*
X147167Y1061261D01*
X147168Y1061261D02*
X147165Y1061024D01*
X147156Y1060787D01*
X147142Y1060550D01*
X147122Y1060314D01*
X147096Y1060078D01*
X147064Y1059843D01*
X147027Y1059609D01*
X146984Y1059376D01*
X146935Y1059144D01*
X146881Y1058913D01*
X146821Y1058684D01*
X146755Y1058456D01*
X146684Y1058230D01*
X146608Y1058005D01*
X146526Y1057783D01*
X146438Y1057562D01*
X146345Y1057344D01*
X146247Y1057128D01*
X146144Y1056915D01*
X146036Y1056704D01*
X145922Y1056496D01*
X145804Y1056290D01*
X145680Y1056088D01*
X145552Y1055888D01*
X145418Y1055692D01*
X145280Y1055499D01*
X145138Y1055310D01*
X144991Y1055124D01*
X144839Y1054942D01*
X144683Y1054763D01*
X144522Y1054589D01*
X144358Y1054418D01*
X144189Y1054251D01*
X144017Y1054089D01*
X143840Y1053931D01*
X143659Y1053777D01*
X143475Y1053627D01*
X143288Y1053482D01*
X143097Y1053342D01*
X142902Y1053206D01*
X142704Y1053076D01*
X142503Y1052950D01*
X142300Y1052829D01*
X142093Y1052712D01*
X141883Y1052601D01*
X141671Y1052496D01*
X141456Y1052395D01*
X141239Y1052300D01*
X141020Y1052210D01*
X140798Y1052125D01*
X140575Y1052046D01*
X140350Y1051972D01*
X140122Y1051903D01*
X139894Y1051841D01*
X139664Y1051783D01*
X139432Y1051732D01*
X139200Y1051686D01*
X138966Y1051646D01*
X138731Y1051611D01*
X138496Y1051582D01*
X138260Y1051559D01*
X138023Y1051542D01*
X137787Y1051530D01*
X137550Y1051525D01*
X137312Y1051525D01*
X137075Y1051530D01*
X136839Y1051542D01*
X136602Y1051559D01*
X136366Y1051582D01*
X136131Y1051611D01*
X135896Y1051646D01*
X135662Y1051686D01*
X135430Y1051732D01*
X135198Y1051783D01*
X134968Y1051841D01*
X134740Y1051903D01*
X134512Y1051972D01*
X134287Y1052046D01*
X134064Y1052125D01*
X133842Y1052210D01*
X133623Y1052300D01*
X133406Y1052395D01*
X133191Y1052496D01*
X132979Y1052601D01*
X132769Y1052712D01*
X132563Y1052829D01*
X132359Y1052950D01*
X132158Y1053076D01*
X131960Y1053206D01*
X131765Y1053342D01*
X131574Y1053482D01*
X131387Y1053627D01*
X131203Y1053777D01*
X131022Y1053931D01*
X130845Y1054089D01*
X130673Y1054251D01*
X130504Y1054418D01*
X130340Y1054589D01*
X130179Y1054763D01*
X130023Y1054942D01*
X129871Y1055124D01*
X129724Y1055310D01*
X129582Y1055499D01*
X129444Y1055692D01*
X129310Y1055888D01*
X129182Y1056088D01*
X129058Y1056290D01*
X128940Y1056496D01*
X128826Y1056704D01*
X128718Y1056915D01*
X128615Y1057128D01*
X128517Y1057344D01*
X128424Y1057562D01*
X128336Y1057783D01*
X128254Y1058005D01*
X128178Y1058230D01*
X128107Y1058456D01*
X128041Y1058684D01*
X127981Y1058913D01*
X127927Y1059144D01*
X127878Y1059376D01*
X127835Y1059609D01*
X127798Y1059843D01*
X127766Y1060078D01*
X127740Y1060314D01*
X127720Y1060550D01*
X127706Y1060787D01*
X127697Y1061024D01*
X127694Y1061261D01*
X157151Y1051524D02*
X157151Y1086576D01*
X166888Y1086576D01*
X167125Y1086573D01*
X167362Y1086564D01*
X167599Y1086550D01*
X167835Y1086530D01*
X168071Y1086504D01*
X168306Y1086472D01*
X168540Y1086435D01*
X168773Y1086392D01*
X169005Y1086343D01*
X169236Y1086289D01*
X169465Y1086229D01*
X169693Y1086163D01*
X169919Y1086092D01*
X170144Y1086016D01*
X170366Y1085934D01*
X170587Y1085846D01*
X170805Y1085753D01*
X171021Y1085655D01*
X171234Y1085552D01*
X171445Y1085444D01*
X171653Y1085330D01*
X171859Y1085212D01*
X172061Y1085088D01*
X172261Y1084960D01*
X172457Y1084826D01*
X172650Y1084688D01*
X172839Y1084546D01*
X173025Y1084399D01*
X173207Y1084247D01*
X173386Y1084091D01*
X173560Y1083930D01*
X173731Y1083766D01*
X173898Y1083597D01*
X174060Y1083425D01*
X174218Y1083248D01*
X174372Y1083067D01*
X174522Y1082883D01*
X174667Y1082696D01*
X174807Y1082505D01*
X174943Y1082310D01*
X175073Y1082112D01*
X175199Y1081911D01*
X175320Y1081708D01*
X175437Y1081501D01*
X175548Y1081291D01*
X175653Y1081079D01*
X175754Y1080864D01*
X175849Y1080647D01*
X175939Y1080428D01*
X176024Y1080206D01*
X176103Y1079983D01*
X176177Y1079758D01*
X176246Y1079530D01*
X176308Y1079302D01*
X176366Y1079072D01*
X176417Y1078840D01*
X176463Y1078608D01*
X176503Y1078374D01*
X176538Y1078139D01*
X176567Y1077904D01*
X176590Y1077668D01*
X176607Y1077431D01*
X176619Y1077195D01*
X176624Y1076958D01*
X176624Y1076720D01*
X176619Y1076483D01*
X176607Y1076247D01*
X176590Y1076010D01*
X176567Y1075774D01*
X176538Y1075539D01*
X176503Y1075304D01*
X176463Y1075070D01*
X176417Y1074838D01*
X176366Y1074606D01*
X176308Y1074376D01*
X176246Y1074148D01*
X176177Y1073920D01*
X176103Y1073695D01*
X176024Y1073472D01*
X175939Y1073250D01*
X175849Y1073031D01*
X175754Y1072814D01*
X175653Y1072599D01*
X175548Y1072387D01*
X175437Y1072177D01*
X175320Y1071971D01*
X175199Y1071767D01*
X175073Y1071566D01*
X174943Y1071368D01*
X174807Y1071173D01*
X174667Y1070982D01*
X174522Y1070795D01*
X174372Y1070611D01*
X174218Y1070430D01*
X174060Y1070253D01*
X173898Y1070081D01*
X173731Y1069912D01*
X173560Y1069748D01*
X173386Y1069587D01*
X173207Y1069431D01*
X173025Y1069279D01*
X172839Y1069132D01*
X172650Y1068990D01*
X172457Y1068852D01*
X172261Y1068718D01*
X172061Y1068590D01*
X171859Y1068466D01*
X171653Y1068348D01*
X171445Y1068234D01*
X171234Y1068126D01*
X171021Y1068023D01*
X170805Y1067925D01*
X170587Y1067832D01*
X170366Y1067744D01*
X170144Y1067662D01*
X169919Y1067586D01*
X169693Y1067515D01*
X169465Y1067449D01*
X169236Y1067389D01*
X169005Y1067335D01*
X168773Y1067286D01*
X168540Y1067243D01*
X168306Y1067206D01*
X168071Y1067174D01*
X167835Y1067148D01*
X167599Y1067128D01*
X167362Y1067114D01*
X167125Y1067105D01*
X166888Y1067102D01*
X166888Y1067103D02*
X157151Y1067103D01*
X184802Y1065155D02*
X208170Y1065155D01*
X218111Y1051524D02*
X218111Y1086576D01*
X227848Y1086576D01*
X228085Y1086573D01*
X228322Y1086564D01*
X228559Y1086550D01*
X228795Y1086530D01*
X229031Y1086504D01*
X229266Y1086472D01*
X229500Y1086435D01*
X229733Y1086392D01*
X229965Y1086343D01*
X230196Y1086289D01*
X230425Y1086229D01*
X230653Y1086163D01*
X230879Y1086092D01*
X231104Y1086016D01*
X231326Y1085934D01*
X231547Y1085846D01*
X231765Y1085753D01*
X231981Y1085655D01*
X232194Y1085552D01*
X232405Y1085444D01*
X232613Y1085330D01*
X232819Y1085212D01*
X233021Y1085088D01*
X233221Y1084960D01*
X233417Y1084826D01*
X233610Y1084688D01*
X233799Y1084546D01*
X233985Y1084399D01*
X234167Y1084247D01*
X234346Y1084091D01*
X234520Y1083930D01*
X234691Y1083766D01*
X234858Y1083597D01*
X235020Y1083425D01*
X235178Y1083248D01*
X235332Y1083067D01*
X235482Y1082883D01*
X235627Y1082696D01*
X235767Y1082505D01*
X235903Y1082310D01*
X236033Y1082112D01*
X236159Y1081911D01*
X236280Y1081708D01*
X236397Y1081501D01*
X236508Y1081291D01*
X236613Y1081079D01*
X236714Y1080864D01*
X236809Y1080647D01*
X236899Y1080428D01*
X236984Y1080206D01*
X237063Y1079983D01*
X237137Y1079758D01*
X237206Y1079530D01*
X237268Y1079302D01*
X237326Y1079072D01*
X237377Y1078840D01*
X237423Y1078608D01*
X237463Y1078374D01*
X237498Y1078139D01*
X237527Y1077904D01*
X237550Y1077668D01*
X237567Y1077431D01*
X237579Y1077195D01*
X237584Y1076958D01*
X237584Y1076720D01*
X237579Y1076483D01*
X237567Y1076247D01*
X237550Y1076010D01*
X237527Y1075774D01*
X237498Y1075539D01*
X237463Y1075304D01*
X237423Y1075070D01*
X237377Y1074838D01*
X237326Y1074606D01*
X237268Y1074376D01*
X237206Y1074148D01*
X237137Y1073920D01*
X237063Y1073695D01*
X236984Y1073472D01*
X236899Y1073250D01*
X236809Y1073031D01*
X236714Y1072814D01*
X236613Y1072599D01*
X236508Y1072387D01*
X236397Y1072177D01*
X236280Y1071971D01*
X236159Y1071767D01*
X236033Y1071566D01*
X235903Y1071368D01*
X235767Y1071173D01*
X235627Y1070982D01*
X235482Y1070795D01*
X235332Y1070611D01*
X235178Y1070430D01*
X235020Y1070253D01*
X234858Y1070081D01*
X234691Y1069912D01*
X234520Y1069748D01*
X234346Y1069587D01*
X234167Y1069431D01*
X233985Y1069279D01*
X233799Y1069132D01*
X233610Y1068990D01*
X233417Y1068852D01*
X233221Y1068718D01*
X233021Y1068590D01*
X232819Y1068466D01*
X232613Y1068348D01*
X232405Y1068234D01*
X232194Y1068126D01*
X231981Y1068023D01*
X231765Y1067925D01*
X231547Y1067832D01*
X231326Y1067744D01*
X231104Y1067662D01*
X230879Y1067586D01*
X230653Y1067515D01*
X230425Y1067449D01*
X230196Y1067389D01*
X229965Y1067335D01*
X229733Y1067286D01*
X229500Y1067243D01*
X229266Y1067206D01*
X229031Y1067174D01*
X228795Y1067148D01*
X228559Y1067128D01*
X228322Y1067114D01*
X228085Y1067105D01*
X227848Y1067102D01*
X227848Y1067103D02*
X218111Y1067103D01*
X243857Y1051524D02*
X255541Y1086576D01*
X267225Y1051524D01*
X264304Y1060287D02*
X246778Y1060287D01*
X285110Y1051524D02*
X285298Y1051526D01*
X285486Y1051533D01*
X285674Y1051544D01*
X285862Y1051560D01*
X286049Y1051581D01*
X286235Y1051606D01*
X286421Y1051635D01*
X286606Y1051669D01*
X286791Y1051708D01*
X286974Y1051750D01*
X287156Y1051798D01*
X287337Y1051849D01*
X287517Y1051905D01*
X287695Y1051966D01*
X287872Y1052030D01*
X288047Y1052099D01*
X288221Y1052172D01*
X288392Y1052249D01*
X288562Y1052331D01*
X288730Y1052416D01*
X288895Y1052506D01*
X289059Y1052599D01*
X289220Y1052696D01*
X289378Y1052798D01*
X289535Y1052903D01*
X289688Y1053012D01*
X289839Y1053124D01*
X289987Y1053240D01*
X290133Y1053360D01*
X290275Y1053483D01*
X290414Y1053609D01*
X290551Y1053739D01*
X290684Y1053872D01*
X290814Y1054009D01*
X290940Y1054148D01*
X291063Y1054290D01*
X291183Y1054436D01*
X291299Y1054584D01*
X291411Y1054735D01*
X291520Y1054888D01*
X291625Y1055045D01*
X291727Y1055203D01*
X291824Y1055364D01*
X291917Y1055528D01*
X292007Y1055693D01*
X292092Y1055861D01*
X292174Y1056031D01*
X292251Y1056202D01*
X292324Y1056376D01*
X292393Y1056551D01*
X292457Y1056728D01*
X292518Y1056906D01*
X292574Y1057086D01*
X292625Y1057267D01*
X292673Y1057449D01*
X292715Y1057632D01*
X292754Y1057817D01*
X292788Y1058002D01*
X292817Y1058188D01*
X292842Y1058374D01*
X292863Y1058561D01*
X292879Y1058749D01*
X292890Y1058937D01*
X292897Y1059125D01*
X292899Y1059313D01*
X285110Y1051524D02*
X284716Y1051529D01*
X284323Y1051543D01*
X283930Y1051566D01*
X283538Y1051599D01*
X283146Y1051642D01*
X282756Y1051693D01*
X282367Y1051754D01*
X281979Y1051825D01*
X281594Y1051904D01*
X281210Y1051993D01*
X280829Y1052091D01*
X280450Y1052198D01*
X280074Y1052314D01*
X279701Y1052439D01*
X279330Y1052572D01*
X278963Y1052715D01*
X278600Y1052867D01*
X278240Y1053027D01*
X277884Y1053195D01*
X277533Y1053372D01*
X277186Y1053558D01*
X276843Y1053752D01*
X276505Y1053953D01*
X276172Y1054163D01*
X275844Y1054381D01*
X275521Y1054607D01*
X275204Y1054840D01*
X274892Y1055081D01*
X274587Y1055329D01*
X274287Y1055584D01*
X273994Y1055847D01*
X273707Y1056116D01*
X273426Y1056392D01*
X274400Y1078787D02*
X274402Y1078975D01*
X274409Y1079163D01*
X274420Y1079351D01*
X274436Y1079539D01*
X274457Y1079726D01*
X274482Y1079912D01*
X274511Y1080098D01*
X274545Y1080283D01*
X274584Y1080468D01*
X274626Y1080651D01*
X274674Y1080833D01*
X274725Y1081014D01*
X274781Y1081194D01*
X274842Y1081372D01*
X274906Y1081549D01*
X274975Y1081724D01*
X275048Y1081898D01*
X275125Y1082069D01*
X275207Y1082239D01*
X275292Y1082407D01*
X275382Y1082572D01*
X275475Y1082736D01*
X275573Y1082897D01*
X275674Y1083055D01*
X275779Y1083212D01*
X275888Y1083365D01*
X276000Y1083516D01*
X276116Y1083664D01*
X276236Y1083810D01*
X276359Y1083952D01*
X276485Y1084091D01*
X276615Y1084228D01*
X276748Y1084361D01*
X276885Y1084491D01*
X277024Y1084617D01*
X277166Y1084740D01*
X277312Y1084860D01*
X277460Y1084976D01*
X277611Y1085088D01*
X277764Y1085197D01*
X277921Y1085302D01*
X278079Y1085404D01*
X278240Y1085501D01*
X278404Y1085594D01*
X278569Y1085684D01*
X278737Y1085769D01*
X278907Y1085851D01*
X279078Y1085928D01*
X279252Y1086001D01*
X279427Y1086070D01*
X279604Y1086134D01*
X279782Y1086195D01*
X279962Y1086251D01*
X280143Y1086302D01*
X280325Y1086350D01*
X280508Y1086393D01*
X280693Y1086431D01*
X280878Y1086465D01*
X281064Y1086494D01*
X281250Y1086519D01*
X281437Y1086540D01*
X281625Y1086556D01*
X281813Y1086567D01*
X282001Y1086574D01*
X282189Y1086576D01*
X282537Y1086572D01*
X282885Y1086559D01*
X283232Y1086539D01*
X283579Y1086510D01*
X283925Y1086472D01*
X284270Y1086427D01*
X284614Y1086373D01*
X284957Y1086311D01*
X285298Y1086241D01*
X285637Y1086163D01*
X285974Y1086077D01*
X286309Y1085983D01*
X286642Y1085881D01*
X286972Y1085771D01*
X287300Y1085653D01*
X287624Y1085527D01*
X287946Y1085394D01*
X288264Y1085253D01*
X288579Y1085104D01*
X288890Y1084948D01*
X289197Y1084785D01*
X289501Y1084614D01*
X289800Y1084436D01*
X290095Y1084251D01*
X290385Y1084059D01*
X290671Y1083861D01*
X290952Y1083655D01*
X278295Y1071971D02*
X278131Y1072070D01*
X277970Y1072173D01*
X277812Y1072280D01*
X277656Y1072390D01*
X277503Y1072505D01*
X277353Y1072623D01*
X277205Y1072744D01*
X277061Y1072869D01*
X276920Y1072998D01*
X276781Y1073130D01*
X276646Y1073265D01*
X276515Y1073403D01*
X276386Y1073545D01*
X276262Y1073689D01*
X276140Y1073837D01*
X276023Y1073987D01*
X275908Y1074140D01*
X275798Y1074296D01*
X275692Y1074455D01*
X275589Y1074616D01*
X275490Y1074779D01*
X275395Y1074945D01*
X275305Y1075113D01*
X275218Y1075284D01*
X275136Y1075456D01*
X275057Y1075630D01*
X274983Y1075806D01*
X274913Y1075984D01*
X274848Y1076163D01*
X274787Y1076344D01*
X274730Y1076527D01*
X274677Y1076710D01*
X274630Y1076895D01*
X274586Y1077081D01*
X274547Y1077268D01*
X274513Y1077456D01*
X274483Y1077645D01*
X274458Y1077834D01*
X274437Y1078024D01*
X274421Y1078214D01*
X274409Y1078405D01*
X274402Y1078596D01*
X274400Y1078787D01*
X289005Y1066129D02*
X289169Y1066030D01*
X289330Y1065927D01*
X289488Y1065820D01*
X289644Y1065710D01*
X289797Y1065595D01*
X289947Y1065477D01*
X290095Y1065356D01*
X290239Y1065231D01*
X290380Y1065102D01*
X290519Y1064970D01*
X290654Y1064835D01*
X290785Y1064697D01*
X290914Y1064555D01*
X291038Y1064411D01*
X291160Y1064263D01*
X291277Y1064113D01*
X291392Y1063960D01*
X291502Y1063804D01*
X291608Y1063645D01*
X291711Y1063484D01*
X291810Y1063321D01*
X291905Y1063155D01*
X291995Y1062987D01*
X292082Y1062816D01*
X292164Y1062644D01*
X292243Y1062470D01*
X292317Y1062294D01*
X292387Y1062116D01*
X292452Y1061937D01*
X292513Y1061756D01*
X292570Y1061573D01*
X292623Y1061390D01*
X292670Y1061205D01*
X292714Y1061019D01*
X292753Y1060832D01*
X292787Y1060644D01*
X292817Y1060455D01*
X292842Y1060266D01*
X292863Y1060076D01*
X292879Y1059886D01*
X292891Y1059695D01*
X292898Y1059504D01*
X292900Y1059313D01*
X289005Y1066129D02*
X278295Y1071971D01*
X308881Y1086576D02*
X308881Y1051524D01*
X299144Y1086576D02*
X318617Y1086576D01*
X326752Y1051524D02*
X342331Y1051524D01*
X326752Y1051524D02*
X326752Y1086576D01*
X342331Y1086576D01*
X338436Y1070997D02*
X326752Y1070997D01*
D11*
X664400Y604600D03*
X664400Y590600D03*
D12*
X662200Y699209D03*
X662200Y682191D03*
D13*
X644600Y640977D03*
X644600Y628023D03*
X519600Y694977D03*
X519600Y682023D03*
D14*
X507000Y472000D03*
X507000Y492000D03*
X605700Y489900D03*
X605700Y509900D03*
X532700Y472000D03*
X532700Y492000D03*
X630200Y489900D03*
X630200Y509900D03*
D15*
X471438Y259578D02*
X466562Y259578D01*
X471438Y259578D02*
X471438Y254702D01*
X466562Y254702D01*
X466562Y259578D01*
X466562Y256326D02*
X471438Y256326D01*
X471438Y257950D02*
X466562Y257950D01*
X466562Y259574D02*
X471438Y259574D01*
X471438Y268578D02*
X466562Y268578D01*
X471438Y268578D02*
X471438Y263702D01*
X466562Y263702D01*
X466562Y268578D01*
X466562Y265326D02*
X471438Y265326D01*
X471438Y266950D02*
X466562Y266950D01*
X466562Y268574D02*
X471438Y268574D01*
D14*
X654200Y490100D03*
X654200Y510100D03*
D15*
X664138Y524262D02*
X664138Y529138D01*
X664138Y524262D02*
X659262Y524262D01*
X659262Y529138D01*
X664138Y529138D01*
X664138Y525886D02*
X659262Y525886D01*
X659262Y527510D02*
X664138Y527510D01*
X664138Y529134D02*
X659262Y529134D01*
X673138Y529138D02*
X673138Y524262D01*
X668262Y524262D01*
X668262Y529138D01*
X673138Y529138D01*
X673138Y525886D02*
X668262Y525886D01*
X668262Y527510D02*
X673138Y527510D01*
X673138Y529134D02*
X668262Y529134D01*
X595962Y543362D02*
X595962Y548238D01*
X600838Y548238D01*
X600838Y543362D01*
X595962Y543362D01*
X595962Y544986D02*
X600838Y544986D01*
X600838Y546610D02*
X595962Y546610D01*
X595962Y548234D02*
X600838Y548234D01*
X586962Y548238D02*
X586962Y543362D01*
X586962Y548238D02*
X591838Y548238D01*
X591838Y543362D01*
X586962Y543362D01*
X586962Y544986D02*
X591838Y544986D01*
X591838Y546610D02*
X586962Y546610D01*
X586962Y548234D02*
X591838Y548234D01*
D16*
X236225Y207275D02*
X228975Y207275D01*
X236225Y207275D02*
X236225Y200525D01*
X228975Y200525D01*
X228975Y207275D01*
X228975Y202774D02*
X236225Y202774D01*
X236225Y205023D02*
X228975Y205023D01*
X228975Y207272D02*
X236225Y207272D01*
X236225Y223275D02*
X228975Y223275D01*
X236225Y223275D02*
X236225Y216525D01*
X228975Y216525D01*
X228975Y223275D01*
X228975Y218774D02*
X236225Y218774D01*
X236225Y221023D02*
X228975Y221023D01*
X228975Y223272D02*
X236225Y223272D01*
X600975Y461175D02*
X608225Y461175D01*
X608225Y454425D01*
X600975Y454425D01*
X600975Y461175D01*
X600975Y456674D02*
X608225Y456674D01*
X608225Y458923D02*
X600975Y458923D01*
X600975Y461172D02*
X608225Y461172D01*
X608225Y477175D02*
X600975Y477175D01*
X608225Y477175D02*
X608225Y470425D01*
X600975Y470425D01*
X600975Y477175D01*
X600975Y472674D02*
X608225Y472674D01*
X608225Y474923D02*
X600975Y474923D01*
X600975Y477172D02*
X608225Y477172D01*
D17*
X213487Y179363D02*
X213487Y155237D01*
X213487Y179363D02*
X222113Y179363D01*
X222113Y155237D01*
X213487Y155237D01*
X213487Y158111D02*
X222113Y158111D01*
X222113Y160985D02*
X213487Y160985D01*
X213487Y163859D02*
X222113Y163859D01*
X222113Y166733D02*
X213487Y166733D01*
X213487Y169607D02*
X222113Y169607D01*
X222113Y172481D02*
X213487Y172481D01*
X213487Y175355D02*
X222113Y175355D01*
X222113Y178229D02*
X213487Y178229D01*
X183487Y179363D02*
X183487Y155237D01*
X183487Y179363D02*
X192113Y179363D01*
X192113Y155237D01*
X183487Y155237D01*
X183487Y158111D02*
X192113Y158111D01*
X192113Y160985D02*
X183487Y160985D01*
X183487Y163859D02*
X192113Y163859D01*
X192113Y166733D02*
X183487Y166733D01*
X183487Y169607D02*
X192113Y169607D01*
X192113Y172481D02*
X183487Y172481D01*
X183487Y175355D02*
X192113Y175355D01*
X192113Y178229D02*
X183487Y178229D01*
D12*
X235200Y126591D03*
X235200Y143609D03*
D16*
X372375Y426525D02*
X379625Y426525D01*
X372375Y426525D02*
X372375Y433275D01*
X379625Y433275D01*
X379625Y426525D01*
X379625Y428774D02*
X372375Y428774D01*
X372375Y431023D02*
X379625Y431023D01*
X379625Y433272D02*
X372375Y433272D01*
X372375Y410525D02*
X379625Y410525D01*
X372375Y410525D02*
X372375Y417275D01*
X379625Y417275D01*
X379625Y410525D01*
X379625Y412774D02*
X372375Y412774D01*
X372375Y415023D02*
X379625Y415023D01*
X379625Y417272D02*
X372375Y417272D01*
X442145Y512215D02*
X449395Y512215D01*
X449395Y505465D01*
X442145Y505465D01*
X442145Y512215D01*
X442145Y507714D02*
X449395Y507714D01*
X449395Y509963D02*
X442145Y509963D01*
X442145Y512212D02*
X449395Y512212D01*
X449395Y528215D02*
X442145Y528215D01*
X449395Y528215D02*
X449395Y521465D01*
X442145Y521465D01*
X442145Y528215D01*
X442145Y523714D02*
X449395Y523714D01*
X449395Y525963D02*
X442145Y525963D01*
X442145Y528212D02*
X449395Y528212D01*
X343725Y162475D02*
X336475Y162475D01*
X343725Y162475D02*
X343725Y155725D01*
X336475Y155725D01*
X336475Y162475D01*
X336475Y157974D02*
X343725Y157974D01*
X343725Y160223D02*
X336475Y160223D01*
X336475Y162472D02*
X343725Y162472D01*
X343725Y178475D02*
X336475Y178475D01*
X343725Y178475D02*
X343725Y171725D01*
X336475Y171725D01*
X336475Y178475D01*
X336475Y173974D02*
X343725Y173974D01*
X343725Y176223D02*
X336475Y176223D01*
X336475Y178472D02*
X343725Y178472D01*
D15*
X476152Y175062D02*
X481028Y175062D01*
X476152Y175062D02*
X476152Y179938D01*
X481028Y179938D01*
X481028Y175062D01*
X481028Y176686D02*
X476152Y176686D01*
X476152Y178310D02*
X481028Y178310D01*
X481028Y179934D02*
X476152Y179934D01*
X476152Y166062D02*
X481028Y166062D01*
X476152Y166062D02*
X476152Y170938D01*
X481028Y170938D01*
X481028Y166062D01*
X481028Y167686D02*
X476152Y167686D01*
X476152Y169310D02*
X481028Y169310D01*
X481028Y170934D02*
X476152Y170934D01*
D17*
X541887Y127387D02*
X555513Y127387D01*
X541887Y127387D02*
X541887Y136013D01*
X555513Y136013D01*
X555513Y127387D01*
X555513Y130261D02*
X541887Y130261D01*
X541887Y133135D02*
X555513Y133135D01*
X555513Y136009D02*
X541887Y136009D01*
X541887Y97387D02*
X555513Y97387D01*
X541887Y97387D02*
X541887Y106013D01*
X555513Y106013D01*
X555513Y97387D01*
X555513Y100261D02*
X541887Y100261D01*
X541887Y103135D02*
X555513Y103135D01*
X555513Y106009D02*
X541887Y106009D01*
D15*
X377438Y469462D02*
X372562Y469462D01*
X372562Y474338D01*
X377438Y474338D01*
X377438Y469462D01*
X377438Y471086D02*
X372562Y471086D01*
X372562Y472710D02*
X377438Y472710D01*
X377438Y474334D02*
X372562Y474334D01*
X372562Y460462D02*
X377438Y460462D01*
X372562Y460462D02*
X372562Y465338D01*
X377438Y465338D01*
X377438Y460462D01*
X377438Y462086D02*
X372562Y462086D01*
X372562Y463710D02*
X377438Y463710D01*
X377438Y465334D02*
X372562Y465334D01*
D12*
X544200Y334791D03*
X544200Y351809D03*
D16*
X511625Y433375D02*
X504375Y433375D01*
X511625Y433375D02*
X511625Y426625D01*
X504375Y426625D01*
X504375Y433375D01*
X504375Y428874D02*
X511625Y428874D01*
X511625Y431123D02*
X504375Y431123D01*
X504375Y433372D02*
X511625Y433372D01*
X511625Y449375D02*
X504375Y449375D01*
X511625Y449375D02*
X511625Y442625D01*
X504375Y442625D01*
X504375Y449375D01*
X504375Y444874D02*
X511625Y444874D01*
X511625Y447123D02*
X504375Y447123D01*
X504375Y449372D02*
X511625Y449372D01*
X208125Y353475D02*
X200875Y353475D01*
X208125Y353475D02*
X208125Y346725D01*
X200875Y346725D01*
X200875Y353475D01*
X200875Y348974D02*
X208125Y348974D01*
X208125Y351223D02*
X200875Y351223D01*
X200875Y353472D02*
X208125Y353472D01*
X208125Y369475D02*
X200875Y369475D01*
X208125Y369475D02*
X208125Y362725D01*
X200875Y362725D01*
X200875Y369475D01*
X200875Y364974D02*
X208125Y364974D01*
X208125Y367223D02*
X200875Y367223D01*
X200875Y369472D02*
X208125Y369472D01*
D15*
X150938Y214038D02*
X146062Y214038D01*
X150938Y214038D02*
X150938Y209162D01*
X146062Y209162D01*
X146062Y214038D01*
X146062Y210786D02*
X150938Y210786D01*
X150938Y212410D02*
X146062Y212410D01*
X146062Y214034D02*
X150938Y214034D01*
X150938Y223038D02*
X146062Y223038D01*
X150938Y223038D02*
X150938Y218162D01*
X146062Y218162D01*
X146062Y223038D01*
X146062Y219786D02*
X150938Y219786D01*
X150938Y221410D02*
X146062Y221410D01*
X146062Y223034D02*
X150938Y223034D01*
X150762Y253362D02*
X155638Y253362D01*
X150762Y253362D02*
X150762Y258238D01*
X155638Y258238D01*
X155638Y253362D01*
X155638Y254986D02*
X150762Y254986D01*
X150762Y256610D02*
X155638Y256610D01*
X155638Y258234D02*
X150762Y258234D01*
X150762Y244362D02*
X155638Y244362D01*
X150762Y244362D02*
X150762Y249238D01*
X155638Y249238D01*
X155638Y244362D01*
X155638Y245986D02*
X150762Y245986D01*
X150762Y247610D02*
X155638Y247610D01*
X155638Y249234D02*
X150762Y249234D01*
X118838Y291062D02*
X113962Y291062D01*
X113962Y295938D01*
X118838Y295938D01*
X118838Y291062D01*
X118838Y292686D02*
X113962Y292686D01*
X113962Y294310D02*
X118838Y294310D01*
X118838Y295934D02*
X113962Y295934D01*
X113962Y282062D02*
X118838Y282062D01*
X113962Y282062D02*
X113962Y286938D01*
X118838Y286938D01*
X118838Y282062D01*
X118838Y283686D02*
X113962Y283686D01*
X113962Y285310D02*
X118838Y285310D01*
X118838Y286934D02*
X113962Y286934D01*
X173362Y286938D02*
X178238Y286938D01*
X178238Y282062D01*
X173362Y282062D01*
X173362Y286938D01*
X173362Y283686D02*
X178238Y283686D01*
X178238Y285310D02*
X173362Y285310D01*
X173362Y286934D02*
X178238Y286934D01*
X178238Y295938D02*
X173362Y295938D01*
X178238Y295938D02*
X178238Y291062D01*
X173362Y291062D01*
X173362Y295938D01*
X173362Y292686D02*
X178238Y292686D01*
X178238Y294310D02*
X173362Y294310D01*
X173362Y295934D02*
X178238Y295934D01*
D18*
X73000Y373000D02*
X73000Y404000D01*
X85000Y404000D01*
X85000Y373000D01*
X73000Y373000D01*
X73000Y376999D02*
X85000Y376999D01*
X85000Y380998D02*
X73000Y380998D01*
X73000Y384997D02*
X85000Y384997D01*
X85000Y388996D02*
X73000Y388996D01*
X73000Y392995D02*
X85000Y392995D01*
X85000Y396994D02*
X73000Y396994D01*
X73000Y400993D02*
X85000Y400993D01*
X73000Y427000D02*
X73000Y458000D01*
X85000Y458000D01*
X85000Y427000D01*
X73000Y427000D01*
X73000Y430999D02*
X85000Y430999D01*
X85000Y434998D02*
X73000Y434998D01*
X73000Y438997D02*
X85000Y438997D01*
X85000Y442996D02*
X73000Y442996D01*
X73000Y446995D02*
X85000Y446995D01*
X85000Y450994D02*
X73000Y450994D01*
X73000Y454993D02*
X85000Y454993D01*
X158500Y404000D02*
X158500Y373000D01*
X158500Y404000D02*
X170500Y404000D01*
X170500Y373000D01*
X158500Y373000D01*
X158500Y376999D02*
X170500Y376999D01*
X170500Y380998D02*
X158500Y380998D01*
X158500Y384997D02*
X170500Y384997D01*
X170500Y388996D02*
X158500Y388996D01*
X158500Y392995D02*
X170500Y392995D01*
X170500Y396994D02*
X158500Y396994D01*
X158500Y400993D02*
X170500Y400993D01*
X158500Y427000D02*
X158500Y458000D01*
X170500Y458000D01*
X170500Y427000D01*
X158500Y427000D01*
X158500Y430999D02*
X170500Y430999D01*
X170500Y434998D02*
X158500Y434998D01*
X158500Y438997D02*
X170500Y438997D01*
X170500Y442996D02*
X158500Y442996D01*
X158500Y446995D02*
X170500Y446995D01*
X170500Y450994D02*
X158500Y450994D01*
X158500Y454993D02*
X170500Y454993D01*
D15*
X440058Y347118D02*
X440058Y342242D01*
X435182Y342242D01*
X435182Y347118D01*
X440058Y347118D01*
X440058Y343866D02*
X435182Y343866D01*
X435182Y345490D02*
X440058Y345490D01*
X440058Y347114D02*
X435182Y347114D01*
X449058Y347118D02*
X449058Y342242D01*
X444182Y342242D01*
X444182Y347118D01*
X449058Y347118D01*
X449058Y343866D02*
X444182Y343866D01*
X444182Y345490D02*
X449058Y345490D01*
X449058Y347114D02*
X444182Y347114D01*
D16*
X114125Y213425D02*
X106875Y213425D01*
X106875Y220175D01*
X114125Y220175D01*
X114125Y213425D01*
X114125Y215674D02*
X106875Y215674D01*
X106875Y217923D02*
X114125Y217923D01*
X114125Y220172D02*
X106875Y220172D01*
X106875Y197425D02*
X114125Y197425D01*
X106875Y197425D02*
X106875Y204175D01*
X114125Y204175D01*
X114125Y197425D01*
X114125Y199674D02*
X106875Y199674D01*
X106875Y201923D02*
X114125Y201923D01*
X114125Y204172D02*
X106875Y204172D01*
X234875Y321275D02*
X234875Y328525D01*
X234875Y321275D02*
X228125Y321275D01*
X228125Y328525D01*
X234875Y328525D01*
X234875Y323524D02*
X228125Y323524D01*
X228125Y325773D02*
X234875Y325773D01*
X234875Y328022D02*
X228125Y328022D01*
X250875Y328525D02*
X250875Y321275D01*
X244125Y321275D01*
X244125Y328525D01*
X250875Y328525D01*
X250875Y323524D02*
X244125Y323524D01*
X244125Y325773D02*
X250875Y325773D01*
X250875Y328022D02*
X244125Y328022D01*
D19*
X110600Y504300D03*
X166600Y504300D03*
D17*
X126463Y545513D02*
X102337Y545513D01*
X126463Y545513D02*
X126463Y536887D01*
X102337Y536887D01*
X102337Y545513D01*
X102337Y539761D02*
X126463Y539761D01*
X126463Y542635D02*
X102337Y542635D01*
X102337Y545509D02*
X126463Y545509D01*
D20*
X114400Y571200D03*
D21*
X603200Y427800D03*
X589200Y427800D03*
D11*
X574200Y856400D03*
X574200Y842400D03*
D22*
X395900Y717900D03*
X395900Y810900D03*
D23*
X525791Y707400D03*
X542809Y707400D03*
X647309Y710100D03*
X630291Y710100D03*
D24*
X555100Y856000D03*
X555100Y845000D03*
D25*
X492100Y811700D03*
X517100Y811700D03*
D26*
X598000Y856524D03*
X598000Y828076D03*
D27*
X513300Y835600D03*
X531300Y835600D03*
X256600Y157500D03*
X274600Y157500D03*
D28*
X92500Y135700D03*
X92500Y153700D03*
X283700Y120400D03*
X283700Y102400D03*
D29*
X395680Y465400D03*
X395680Y452700D03*
X395680Y440000D03*
X395680Y427300D03*
X395680Y414600D03*
X395680Y401900D03*
X395680Y389200D03*
X449920Y389200D03*
X449920Y401900D03*
X449920Y414600D03*
X449920Y427300D03*
X449920Y440000D03*
X449920Y452700D03*
X449920Y465400D03*
X360780Y196800D03*
X360780Y184100D03*
X360780Y171400D03*
X360780Y158700D03*
X360780Y146000D03*
X360780Y133300D03*
X360780Y120600D03*
X415020Y120600D03*
X415020Y133300D03*
X415020Y146000D03*
X415020Y158700D03*
X415020Y171400D03*
X415020Y184100D03*
X415020Y196800D03*
D30*
X561500Y368100D03*
X561500Y387100D03*
X540500Y377600D03*
D31*
X532100Y547305D03*
X532100Y594295D03*
D32*
X630300Y590650D03*
X630300Y560150D03*
D33*
X345800Y574400D03*
X445800Y574400D03*
X445800Y604400D03*
X345800Y604400D03*
D34*
X545500Y55000D03*
X526500Y55000D03*
X602300Y55000D03*
X583300Y55000D03*
X659500Y56000D03*
X640500Y56000D03*
X715500Y55000D03*
X696500Y55000D03*
D35*
X766000Y55000D03*
X750000Y55000D03*
D36*
X660400Y473800D03*
X660400Y458800D03*
D37*
X472000Y121250D02*
X467000Y121250D01*
X467000Y125750D01*
X472000Y125750D01*
X472000Y121250D01*
X472000Y122749D02*
X467000Y122749D01*
X467000Y124248D02*
X472000Y124248D01*
X472000Y125747D02*
X467000Y125747D01*
X467000Y111250D02*
X472000Y111250D01*
X467000Y111250D02*
X467000Y115750D01*
X472000Y115750D01*
X472000Y111250D01*
X472000Y112749D02*
X467000Y112749D01*
X467000Y114248D02*
X472000Y114248D01*
X472000Y115747D02*
X467000Y115747D01*
X617500Y146750D02*
X622500Y146750D01*
X617500Y146750D02*
X617500Y151250D01*
X622500Y151250D01*
X622500Y146750D01*
X622500Y148249D02*
X617500Y148249D01*
X617500Y149748D02*
X622500Y149748D01*
X622500Y151247D02*
X617500Y151247D01*
X617500Y136750D02*
X622500Y136750D01*
X617500Y136750D02*
X617500Y141250D01*
X622500Y141250D01*
X622500Y136750D01*
X622500Y138249D02*
X617500Y138249D01*
X617500Y139748D02*
X622500Y139748D01*
X622500Y141247D02*
X617500Y141247D01*
X605500Y146750D02*
X600500Y146750D01*
X600500Y151250D01*
X605500Y151250D01*
X605500Y146750D01*
X605500Y148249D02*
X600500Y148249D01*
X600500Y149748D02*
X605500Y149748D01*
X605500Y151247D02*
X600500Y151247D01*
X600500Y136750D02*
X605500Y136750D01*
X600500Y136750D02*
X600500Y141250D01*
X605500Y141250D01*
X605500Y136750D01*
X605500Y138249D02*
X600500Y138249D01*
X600500Y139748D02*
X605500Y139748D01*
X605500Y141247D02*
X600500Y141247D01*
X531000Y116450D02*
X526000Y116450D01*
X531000Y116450D02*
X531000Y111950D01*
X526000Y111950D01*
X526000Y116450D01*
X526000Y113449D02*
X531000Y113449D01*
X531000Y114948D02*
X526000Y114948D01*
X526000Y116447D02*
X531000Y116447D01*
X531000Y126450D02*
X526000Y126450D01*
X531000Y126450D02*
X531000Y121950D01*
X526000Y121950D01*
X526000Y126450D01*
X526000Y123449D02*
X531000Y123449D01*
X531000Y124948D02*
X526000Y124948D01*
X526000Y126447D02*
X531000Y126447D01*
D38*
X571000Y127600D03*
X571000Y112600D03*
D39*
X376000Y380900D03*
X376000Y391900D03*
D37*
X466500Y297250D02*
X471500Y297250D01*
X471500Y292750D01*
X466500Y292750D01*
X466500Y297250D01*
X466500Y294249D02*
X471500Y294249D01*
X471500Y295748D02*
X466500Y295748D01*
X466500Y297247D02*
X471500Y297247D01*
X471500Y307250D02*
X466500Y307250D01*
X471500Y307250D02*
X471500Y302750D01*
X466500Y302750D01*
X466500Y307250D01*
X466500Y304249D02*
X471500Y304249D01*
X471500Y305748D02*
X466500Y305748D01*
X466500Y307247D02*
X471500Y307247D01*
D40*
X710500Y204000D03*
X699500Y204000D03*
X710500Y225000D03*
X699500Y225000D03*
X710500Y301000D03*
X699500Y301000D03*
D37*
X705800Y345950D02*
X710800Y345950D01*
X705800Y345950D02*
X705800Y350450D01*
X710800Y350450D01*
X710800Y345950D01*
X710800Y347449D02*
X705800Y347449D01*
X705800Y348948D02*
X710800Y348948D01*
X710800Y350447D02*
X705800Y350447D01*
X705800Y335950D02*
X710800Y335950D01*
X705800Y335950D02*
X705800Y340450D01*
X710800Y340450D01*
X710800Y335950D01*
X710800Y337449D02*
X705800Y337449D01*
X705800Y338948D02*
X710800Y338948D01*
X710800Y340447D02*
X705800Y340447D01*
X490500Y121750D02*
X485500Y121750D01*
X485500Y126250D01*
X490500Y126250D01*
X490500Y121750D01*
X490500Y123249D02*
X485500Y123249D01*
X485500Y124748D02*
X490500Y124748D01*
X490500Y126247D02*
X485500Y126247D01*
X485500Y111750D02*
X490500Y111750D01*
X485500Y111750D02*
X485500Y116250D01*
X490500Y116250D01*
X490500Y111750D01*
X490500Y113249D02*
X485500Y113249D01*
X485500Y114748D02*
X490500Y114748D01*
X490500Y116247D02*
X485500Y116247D01*
D40*
X738700Y433700D03*
X749700Y433700D03*
X739500Y451700D03*
X750500Y451700D03*
X710500Y249000D03*
X699500Y249000D03*
D37*
X631700Y469350D02*
X626700Y469350D01*
X626700Y473850D01*
X631700Y473850D01*
X631700Y469350D01*
X631700Y470849D02*
X626700Y470849D01*
X626700Y472348D02*
X631700Y472348D01*
X631700Y473847D02*
X626700Y473847D01*
X626700Y459350D02*
X631700Y459350D01*
X626700Y459350D02*
X626700Y463850D01*
X631700Y463850D01*
X631700Y459350D01*
X631700Y460849D02*
X626700Y460849D01*
X626700Y462348D02*
X631700Y462348D01*
X631700Y463847D02*
X626700Y463847D01*
D40*
X710500Y275000D03*
X699500Y275000D03*
D41*
X630400Y437600D03*
X645400Y437600D03*
D40*
X414500Y650000D03*
X425500Y650000D03*
D39*
X435400Y124000D03*
X435400Y113000D03*
D37*
X417050Y664700D02*
X417050Y669700D01*
X417050Y664700D02*
X412550Y664700D01*
X412550Y669700D01*
X417050Y669700D01*
X417050Y666199D02*
X412550Y666199D01*
X412550Y667698D02*
X417050Y667698D01*
X417050Y669197D02*
X412550Y669197D01*
X427050Y669700D02*
X427050Y664700D01*
X422550Y664700D01*
X422550Y669700D01*
X427050Y669700D01*
X427050Y666199D02*
X422550Y666199D01*
X422550Y667698D02*
X427050Y667698D01*
X427050Y669197D02*
X422550Y669197D01*
X664500Y83050D02*
X669500Y83050D01*
X664500Y83050D02*
X664500Y87550D01*
X669500Y87550D01*
X669500Y83050D01*
X669500Y84549D02*
X664500Y84549D01*
X664500Y86048D02*
X669500Y86048D01*
X669500Y87547D02*
X664500Y87547D01*
X664500Y73050D02*
X669500Y73050D01*
X664500Y73050D02*
X664500Y77550D01*
X669500Y77550D01*
X669500Y73050D01*
X669500Y74549D02*
X664500Y74549D01*
X664500Y76048D02*
X669500Y76048D01*
X669500Y77547D02*
X664500Y77547D01*
D42*
X561800Y351478D03*
X561800Y335922D03*
D43*
X516875Y334675D02*
X516875Y348925D01*
X525125Y348925D01*
X525125Y334675D01*
X516875Y334675D01*
X516875Y337424D02*
X525125Y337424D01*
X525125Y340173D02*
X516875Y340173D01*
X516875Y342922D02*
X525125Y342922D01*
X525125Y345671D02*
X516875Y345671D01*
X516875Y348420D02*
X525125Y348420D01*
X487875Y348925D02*
X487875Y334675D01*
X487875Y348925D02*
X496125Y348925D01*
X496125Y334675D01*
X487875Y334675D01*
X487875Y337424D02*
X496125Y337424D01*
X496125Y340173D02*
X487875Y340173D01*
X487875Y342922D02*
X496125Y342922D01*
X496125Y345671D02*
X487875Y345671D01*
X487875Y348420D02*
X496125Y348420D01*
D44*
X198750Y246800D02*
X191250Y246800D01*
X198750Y246800D02*
X198750Y240800D01*
X191250Y240800D01*
X191250Y246800D01*
X191250Y242799D02*
X198750Y242799D01*
X198750Y244798D02*
X191250Y244798D01*
X191250Y246797D02*
X198750Y246797D01*
X198750Y262800D02*
X191250Y262800D01*
X198750Y262800D02*
X198750Y256800D01*
X191250Y256800D01*
X191250Y262800D01*
X191250Y258799D02*
X198750Y258799D01*
X198750Y260798D02*
X191250Y260798D01*
X191250Y262797D02*
X198750Y262797D01*
D37*
X197700Y214250D02*
X202700Y214250D01*
X202700Y209750D01*
X197700Y209750D01*
X197700Y214250D01*
X197700Y211249D02*
X202700Y211249D01*
X202700Y212748D02*
X197700Y212748D01*
X197700Y214247D02*
X202700Y214247D01*
X202700Y224250D02*
X197700Y224250D01*
X202700Y224250D02*
X202700Y219750D01*
X197700Y219750D01*
X197700Y224250D01*
X197700Y221249D02*
X202700Y221249D01*
X202700Y222748D02*
X197700Y222748D01*
X197700Y224247D02*
X202700Y224247D01*
X165200Y218750D02*
X160200Y218750D01*
X160200Y223250D01*
X165200Y223250D01*
X165200Y218750D01*
X165200Y220249D02*
X160200Y220249D01*
X160200Y221748D02*
X165200Y221748D01*
X165200Y223247D02*
X160200Y223247D01*
X160200Y208750D02*
X165200Y208750D01*
X160200Y208750D02*
X160200Y213250D01*
X165200Y213250D01*
X165200Y208750D01*
X165200Y210249D02*
X160200Y210249D01*
X160200Y211748D02*
X165200Y211748D01*
X165200Y213247D02*
X160200Y213247D01*
X685500Y83050D02*
X690500Y83050D01*
X685500Y83050D02*
X685500Y87550D01*
X690500Y87550D01*
X690500Y83050D01*
X690500Y84549D02*
X685500Y84549D01*
X685500Y86048D02*
X690500Y86048D01*
X690500Y87547D02*
X685500Y87547D01*
X685500Y73050D02*
X690500Y73050D01*
X685500Y73050D02*
X685500Y77550D01*
X690500Y77550D01*
X690500Y73050D01*
X690500Y74549D02*
X685500Y74549D01*
X685500Y76048D02*
X690500Y76048D01*
X690500Y77547D02*
X685500Y77547D01*
D43*
X118625Y238425D02*
X104375Y238425D01*
X118625Y238425D02*
X118625Y230175D01*
X104375Y230175D01*
X104375Y238425D01*
X104375Y232924D02*
X118625Y232924D01*
X118625Y235673D02*
X104375Y235673D01*
X104375Y238422D02*
X118625Y238422D01*
X118625Y267425D02*
X104375Y267425D01*
X118625Y267425D02*
X118625Y259175D01*
X104375Y259175D01*
X104375Y267425D01*
X104375Y261924D02*
X118625Y261924D01*
X118625Y264673D02*
X104375Y264673D01*
X104375Y267422D02*
X118625Y267422D01*
D44*
X119750Y139500D02*
X127250Y139500D01*
X127250Y133500D01*
X119750Y133500D01*
X119750Y139500D01*
X119750Y135499D02*
X127250Y135499D01*
X127250Y137498D02*
X119750Y137498D01*
X119750Y139497D02*
X127250Y139497D01*
X127250Y155500D02*
X119750Y155500D01*
X127250Y155500D02*
X127250Y149500D01*
X119750Y149500D01*
X119750Y155500D01*
X119750Y151499D02*
X127250Y151499D01*
X127250Y153498D02*
X119750Y153498D01*
X119750Y155497D02*
X127250Y155497D01*
D38*
X212300Y281100D03*
X212300Y296100D03*
D44*
X141450Y284000D02*
X133950Y284000D01*
X141450Y284000D02*
X141450Y278000D01*
X133950Y278000D01*
X133950Y284000D01*
X133950Y279999D02*
X141450Y279999D01*
X141450Y281998D02*
X133950Y281998D01*
X133950Y283997D02*
X141450Y283997D01*
X141450Y300000D02*
X133950Y300000D01*
X141450Y300000D02*
X141450Y294000D01*
X133950Y294000D01*
X133950Y300000D01*
X133950Y295999D02*
X141450Y295999D01*
X141450Y297998D02*
X133950Y297998D01*
X133950Y299997D02*
X141450Y299997D01*
D37*
X136800Y247850D02*
X131800Y247850D01*
X136800Y247850D02*
X136800Y243350D01*
X131800Y243350D01*
X131800Y247850D01*
X131800Y244849D02*
X136800Y244849D01*
X136800Y246348D02*
X131800Y246348D01*
X131800Y247847D02*
X136800Y247847D01*
X136800Y257850D02*
X131800Y257850D01*
X136800Y257850D02*
X136800Y253350D01*
X131800Y253350D01*
X131800Y257850D01*
X131800Y254849D02*
X136800Y254849D01*
X136800Y256348D02*
X131800Y256348D01*
X131800Y257847D02*
X136800Y257847D01*
D44*
X171350Y256800D02*
X178850Y256800D01*
X171350Y256800D02*
X171350Y262800D01*
X178850Y262800D01*
X178850Y256800D01*
X178850Y258799D02*
X171350Y258799D01*
X171350Y260798D02*
X178850Y260798D01*
X178850Y262797D02*
X171350Y262797D01*
X171350Y240800D02*
X178850Y240800D01*
X171350Y240800D02*
X171350Y246800D01*
X178850Y246800D01*
X178850Y240800D01*
X178850Y242799D02*
X171350Y242799D01*
X171350Y244798D02*
X178850Y244798D01*
X178850Y246797D02*
X171350Y246797D01*
D37*
X160500Y286350D02*
X155500Y286350D01*
X160500Y286350D02*
X160500Y281850D01*
X155500Y281850D01*
X155500Y286350D01*
X155500Y283349D02*
X160500Y283349D01*
X160500Y284848D02*
X155500Y284848D01*
X155500Y286347D02*
X160500Y286347D01*
X160500Y296350D02*
X155500Y296350D01*
X160500Y296350D02*
X160500Y291850D01*
X155500Y291850D01*
X155500Y296350D01*
X155500Y293349D02*
X160500Y293349D01*
X160500Y294848D02*
X155500Y294848D01*
X155500Y296347D02*
X160500Y296347D01*
X136200Y324750D02*
X131200Y324750D01*
X131200Y329250D01*
X136200Y329250D01*
X136200Y324750D01*
X136200Y326249D02*
X131200Y326249D01*
X131200Y327748D02*
X136200Y327748D01*
X136200Y329247D02*
X131200Y329247D01*
X131200Y314750D02*
X136200Y314750D01*
X131200Y314750D02*
X131200Y319250D01*
X136200Y319250D01*
X136200Y314750D01*
X136200Y316249D02*
X131200Y316249D01*
X131200Y317748D02*
X136200Y317748D01*
X136200Y319247D02*
X131200Y319247D01*
X119300Y342250D02*
X114300Y342250D01*
X119300Y342250D02*
X119300Y337750D01*
X114300Y337750D01*
X114300Y342250D01*
X114300Y339249D02*
X119300Y339249D01*
X119300Y340748D02*
X114300Y340748D01*
X114300Y342247D02*
X119300Y342247D01*
X119300Y352250D02*
X114300Y352250D01*
X119300Y352250D02*
X119300Y347750D01*
X114300Y347750D01*
X114300Y352250D01*
X114300Y349249D02*
X119300Y349249D01*
X119300Y350748D02*
X114300Y350748D01*
X114300Y352247D02*
X119300Y352247D01*
X189500Y286450D02*
X194500Y286450D01*
X194500Y281950D01*
X189500Y281950D01*
X189500Y286450D01*
X189500Y283449D02*
X194500Y283449D01*
X194500Y284948D02*
X189500Y284948D01*
X189500Y286447D02*
X194500Y286447D01*
X194500Y296450D02*
X189500Y296450D01*
X194500Y296450D02*
X194500Y291950D01*
X189500Y291950D01*
X189500Y296450D01*
X189500Y293449D02*
X194500Y293449D01*
X194500Y294948D02*
X189500Y294948D01*
X189500Y296447D02*
X194500Y296447D01*
X435800Y170250D02*
X440800Y170250D01*
X440800Y165750D01*
X435800Y165750D01*
X435800Y170250D01*
X435800Y167249D02*
X440800Y167249D01*
X440800Y168748D02*
X435800Y168748D01*
X435800Y170247D02*
X440800Y170247D01*
X440800Y180250D02*
X435800Y180250D01*
X440800Y180250D02*
X440800Y175750D01*
X435800Y175750D01*
X435800Y180250D01*
X435800Y177249D02*
X440800Y177249D01*
X440800Y178748D02*
X435800Y178748D01*
X435800Y180247D02*
X440800Y180247D01*
X320830Y554410D02*
X315830Y554410D01*
X315830Y558910D01*
X320830Y558910D01*
X320830Y554410D01*
X320830Y555909D02*
X315830Y555909D01*
X315830Y557408D02*
X320830Y557408D01*
X320830Y558907D02*
X315830Y558907D01*
X315830Y544410D02*
X320830Y544410D01*
X315830Y544410D02*
X315830Y548910D01*
X320830Y548910D01*
X320830Y544410D01*
X320830Y545909D02*
X315830Y545909D01*
X315830Y547408D02*
X320830Y547408D01*
X320830Y548907D02*
X315830Y548907D01*
X274550Y309800D02*
X274550Y304800D01*
X274550Y309800D02*
X279050Y309800D01*
X279050Y304800D01*
X274550Y304800D01*
X274550Y306299D02*
X279050Y306299D01*
X279050Y307798D02*
X274550Y307798D01*
X274550Y309297D02*
X279050Y309297D01*
X264550Y309800D02*
X264550Y304800D01*
X264550Y309800D02*
X269050Y309800D01*
X269050Y304800D01*
X264550Y304800D01*
X264550Y306299D02*
X269050Y306299D01*
X269050Y307798D02*
X264550Y307798D01*
X264550Y309297D02*
X269050Y309297D01*
X274250Y294500D02*
X274250Y289500D01*
X274250Y294500D02*
X278750Y294500D01*
X278750Y289500D01*
X274250Y289500D01*
X274250Y290999D02*
X278750Y290999D01*
X278750Y292498D02*
X274250Y292498D01*
X274250Y293997D02*
X278750Y293997D01*
X264250Y294500D02*
X264250Y289500D01*
X264250Y294500D02*
X268750Y294500D01*
X268750Y289500D01*
X264250Y289500D01*
X264250Y290999D02*
X268750Y290999D01*
X268750Y292498D02*
X264250Y292498D01*
X264250Y293997D02*
X268750Y293997D01*
X315970Y529990D02*
X320970Y529990D01*
X315970Y529990D02*
X315970Y534490D01*
X320970Y534490D01*
X320970Y529990D01*
X320970Y531489D02*
X315970Y531489D01*
X315970Y532988D02*
X320970Y532988D01*
X320970Y534487D02*
X315970Y534487D01*
X315970Y519990D02*
X320970Y519990D01*
X315970Y519990D02*
X315970Y524490D01*
X320970Y524490D01*
X320970Y519990D01*
X320970Y521489D02*
X315970Y521489D01*
X315970Y522988D02*
X320970Y522988D01*
X320970Y524487D02*
X315970Y524487D01*
D40*
X237800Y252500D03*
X226800Y252500D03*
D39*
X212500Y263500D03*
X212500Y252500D03*
D45*
X68500Y486500D03*
X83500Y486500D03*
D40*
X276500Y277000D03*
X265500Y277000D03*
D45*
X51500Y486500D03*
X36500Y486500D03*
D37*
X616000Y358550D02*
X621000Y358550D01*
X616000Y358550D02*
X616000Y363050D01*
X621000Y363050D01*
X621000Y358550D01*
X621000Y360049D02*
X616000Y360049D01*
X616000Y361548D02*
X621000Y361548D01*
X621000Y363047D02*
X616000Y363047D01*
X616000Y348550D02*
X621000Y348550D01*
X616000Y348550D02*
X616000Y353050D01*
X621000Y353050D01*
X621000Y348550D01*
X621000Y350049D02*
X616000Y350049D01*
X616000Y351548D02*
X621000Y351548D01*
X621000Y353047D02*
X616000Y353047D01*
X415450Y631000D02*
X415450Y636000D01*
X415450Y631000D02*
X410950Y631000D01*
X410950Y636000D01*
X415450Y636000D01*
X415450Y632499D02*
X410950Y632499D01*
X410950Y633998D02*
X415450Y633998D01*
X415450Y635497D02*
X410950Y635497D01*
X425450Y636000D02*
X425450Y631000D01*
X420950Y631000D01*
X420950Y636000D01*
X425450Y636000D01*
X425450Y632499D02*
X420950Y632499D01*
X420950Y633998D02*
X425450Y633998D01*
X425450Y635497D02*
X420950Y635497D01*
X115150Y690800D02*
X115150Y695800D01*
X115150Y690800D02*
X110650Y690800D01*
X110650Y695800D01*
X115150Y695800D01*
X115150Y692299D02*
X110650Y692299D01*
X110650Y693798D02*
X115150Y693798D01*
X115150Y695297D02*
X110650Y695297D01*
X125150Y695800D02*
X125150Y690800D01*
X120650Y690800D01*
X120650Y695800D01*
X125150Y695800D01*
X125150Y692299D02*
X120650Y692299D01*
X120650Y693798D02*
X125150Y693798D01*
X125150Y695297D02*
X120650Y695297D01*
D43*
X217175Y663125D02*
X231425Y663125D01*
X231425Y654875D01*
X217175Y654875D01*
X217175Y663125D01*
X217175Y657624D02*
X231425Y657624D01*
X231425Y660373D02*
X217175Y660373D01*
X217175Y663122D02*
X231425Y663122D01*
X231425Y692125D02*
X217175Y692125D01*
X231425Y692125D02*
X231425Y683875D01*
X217175Y683875D01*
X217175Y692125D01*
X217175Y686624D02*
X231425Y686624D01*
X231425Y689373D02*
X217175Y689373D01*
X217175Y692122D02*
X231425Y692122D01*
D39*
X252000Y676400D03*
X252000Y665400D03*
D41*
X497300Y792100D03*
X512300Y792100D03*
D42*
X648800Y682422D03*
X648800Y697978D03*
D46*
X677600Y700528D03*
X677600Y683472D03*
D42*
X519620Y632012D03*
X519620Y647568D03*
D37*
X742150Y470800D02*
X742150Y465800D01*
X737650Y465800D01*
X737650Y470800D01*
X742150Y470800D01*
X742150Y467299D02*
X737650Y467299D01*
X737650Y468798D02*
X742150Y468798D01*
X742150Y470297D02*
X737650Y470297D01*
X752150Y470800D02*
X752150Y465800D01*
X747650Y465800D01*
X747650Y470800D01*
X752150Y470800D01*
X752150Y467299D02*
X747650Y467299D01*
X747650Y468798D02*
X752150Y468798D01*
X752150Y470297D02*
X747650Y470297D01*
D46*
X661700Y626072D03*
X661700Y643128D03*
D37*
X620700Y328750D02*
X615700Y328750D01*
X615700Y333250D01*
X620700Y333250D01*
X620700Y328750D01*
X620700Y330249D02*
X615700Y330249D01*
X615700Y331748D02*
X620700Y331748D01*
X620700Y333247D02*
X615700Y333247D01*
X615700Y318750D02*
X620700Y318750D01*
X615700Y318750D02*
X615700Y323250D01*
X620700Y323250D01*
X620700Y318750D01*
X620700Y320249D02*
X615700Y320249D01*
X615700Y321748D02*
X620700Y321748D01*
X620700Y323247D02*
X615700Y323247D01*
D42*
X676500Y642278D03*
X676500Y626722D03*
D46*
X503000Y682672D03*
X503000Y699728D03*
D47*
X502800Y712537D03*
X502800Y730063D03*
D38*
X508500Y127100D03*
X508500Y112100D03*
D39*
X645400Y79600D03*
X645400Y90600D03*
D48*
X206600Y722000D03*
X232000Y722000D03*
X257400Y722000D03*
X257400Y847000D03*
X232000Y847000D03*
X206600Y847000D03*
X89600Y722000D03*
X115000Y722000D03*
X140400Y722000D03*
X140400Y847000D03*
X115000Y847000D03*
X89600Y847000D03*
D49*
X601000Y101400D03*
X601000Y91900D03*
X601000Y110900D03*
X624000Y91900D03*
X624000Y110900D03*
D50*
X50600Y510000D03*
X50600Y534000D03*
X60100Y534000D03*
X69600Y534000D03*
X60100Y510000D03*
X69600Y510000D03*
D51*
X541434Y631747D03*
X547937Y631747D03*
X554439Y631747D03*
X560942Y631747D03*
X567444Y631747D03*
X573946Y631747D03*
X580449Y631747D03*
X586951Y631747D03*
X593454Y631747D03*
X599956Y631747D03*
X606458Y631747D03*
X612961Y631747D03*
X619463Y631747D03*
X625966Y631747D03*
X625966Y689253D03*
X619463Y689253D03*
X612961Y689253D03*
X606458Y689253D03*
X599956Y689253D03*
X593454Y689253D03*
X586951Y689253D03*
X580449Y689253D03*
X573946Y689253D03*
X567444Y689253D03*
X560942Y689253D03*
X554439Y689253D03*
X547937Y689253D03*
X541434Y689253D03*
D52*
X635500Y144000D03*
X635500Y149000D03*
X635500Y139000D03*
X640500Y144000D03*
X640500Y149000D03*
X640500Y139000D03*
X645500Y144000D03*
X645500Y149000D03*
X645500Y139000D03*
X650500Y144000D03*
X650500Y139000D03*
D53*
X257800Y230800D03*
X257800Y221300D03*
X257800Y211800D03*
X284800Y211800D03*
X284800Y221300D03*
X284800Y230800D03*
D49*
X545600Y434600D03*
X545600Y425100D03*
X545600Y444100D03*
X568600Y425100D03*
X568600Y444100D03*
D54*
X417154Y505570D03*
X417154Y512070D03*
X417154Y518570D03*
X417154Y525070D03*
X417154Y531570D03*
X417154Y538070D03*
X417154Y544570D03*
X360766Y544570D03*
X360766Y538070D03*
X360766Y531570D03*
X360766Y525070D03*
X360766Y518570D03*
X360766Y512070D03*
X360766Y505570D03*
D55*
X88350Y337500D03*
X88350Y285500D03*
X101050Y337500D03*
X75650Y337500D03*
X62950Y337500D03*
X101050Y285500D03*
X75650Y285500D03*
X62950Y285500D03*
D56*
X157000Y343200D03*
X181000Y343200D03*
X181000Y333700D03*
X181000Y324200D03*
X157000Y333700D03*
X157000Y324200D03*
D50*
X229400Y280000D03*
X229400Y304000D03*
X238900Y304000D03*
X248400Y304000D03*
X238900Y280000D03*
X248400Y280000D03*
D57*
X417170Y314730D02*
X417170Y327230D01*
X427670Y327230D01*
X427670Y314730D01*
X417170Y314730D01*
X417170Y318229D02*
X427670Y318229D01*
X427670Y321728D02*
X417170Y321728D01*
X417170Y325227D02*
X427670Y325227D01*
X417170Y285230D02*
X417170Y272730D01*
X417170Y285230D02*
X427670Y285230D01*
X427670Y272730D01*
X417170Y272730D01*
X417170Y276229D02*
X427670Y276229D01*
X427670Y279728D02*
X417170Y279728D01*
X417170Y283227D02*
X427670Y283227D01*
X441170Y285230D02*
X441170Y272730D01*
X441170Y285230D02*
X451670Y285230D01*
X451670Y272730D01*
X441170Y272730D01*
X441170Y276229D02*
X451670Y276229D01*
X451670Y279728D02*
X441170Y279728D01*
X441170Y283227D02*
X451670Y283227D01*
X441170Y314730D02*
X441170Y327230D01*
X451670Y327230D01*
X451670Y314730D01*
X441170Y314730D01*
X441170Y318229D02*
X451670Y318229D01*
X451670Y321728D02*
X441170Y321728D01*
X441170Y325227D02*
X451670Y325227D01*
D58*
X63800Y571000D03*
X57200Y571000D03*
D59*
X710500Y82900D03*
X710500Y76100D03*
D60*
X725600Y486200D03*
X725600Y551200D03*
X755600Y486200D03*
X755600Y551200D03*
D61*
X544600Y755218D03*
X544600Y721182D03*
X623100Y755718D03*
X623100Y721682D03*
D62*
X571600Y753200D03*
X571600Y723200D03*
X598100Y753200D03*
X598100Y723200D03*
D14*
X557000Y472000D03*
X557000Y492000D03*
D63*
X491500Y373000D03*
X521500Y373000D03*
D16*
X55875Y552375D02*
X55875Y559625D01*
X55875Y552375D02*
X49125Y552375D01*
X49125Y559625D01*
X55875Y559625D01*
X55875Y554624D02*
X49125Y554624D01*
X49125Y556873D02*
X55875Y556873D01*
X55875Y559122D02*
X49125Y559122D01*
X71875Y559625D02*
X71875Y552375D01*
X65125Y552375D01*
X65125Y559625D01*
X71875Y559625D01*
X71875Y554624D02*
X65125Y554624D01*
X65125Y556873D02*
X71875Y556873D01*
X71875Y559122D02*
X65125Y559122D01*
D18*
X243500Y404000D02*
X243500Y373000D01*
X243500Y404000D02*
X255500Y404000D01*
X255500Y373000D01*
X243500Y373000D01*
X243500Y376999D02*
X255500Y376999D01*
X255500Y380998D02*
X243500Y380998D01*
X243500Y384997D02*
X255500Y384997D01*
X255500Y388996D02*
X243500Y388996D01*
X243500Y392995D02*
X255500Y392995D01*
X255500Y396994D02*
X243500Y396994D01*
X243500Y400993D02*
X255500Y400993D01*
X243500Y427000D02*
X243500Y458000D01*
X255500Y458000D01*
X255500Y427000D01*
X243500Y427000D01*
X243500Y430999D02*
X255500Y430999D01*
X255500Y434998D02*
X243500Y434998D01*
X243500Y438997D02*
X255500Y438997D01*
X255500Y442996D02*
X243500Y442996D01*
X243500Y446995D02*
X255500Y446995D01*
X255500Y450994D02*
X243500Y450994D01*
X243500Y454993D02*
X255500Y454993D01*
D64*
X62488Y79000D03*
X127512Y79000D03*
X188488Y79000D03*
X253512Y79000D03*
D65*
X415180Y259000D03*
X420820Y259000D03*
D66*
X484500Y310820D03*
X484500Y305180D03*
D65*
X396680Y313500D03*
X402320Y313500D03*
D66*
X431000Y485680D03*
X431000Y491320D03*
X445000Y485680D03*
X445000Y491320D03*
D67*
X361500Y417200D03*
X361500Y423800D03*
X528500Y434800D03*
X528500Y428200D03*
X245000Y219300D03*
X245000Y212700D03*
X588500Y469300D03*
X588500Y462700D03*
D58*
X206700Y145500D03*
X213300Y145500D03*
D67*
X431000Y514800D03*
X431000Y508200D03*
X325000Y166300D03*
X325000Y159700D03*
D58*
X503200Y390500D03*
X509800Y390500D03*
D67*
X187500Y361300D03*
X187500Y354700D03*
X179500Y218800D03*
X179500Y212200D03*
D58*
X114700Y322000D03*
X121300Y322000D03*
D67*
X134000Y347800D03*
X134000Y341200D03*
X126500Y207200D03*
X126500Y213800D03*
D58*
X243800Y338000D03*
X237200Y338000D03*
X236300Y264500D03*
X229700Y264500D03*
X748200Y568500D03*
X754800Y568500D03*
D21*
X588000Y604500D03*
X602000Y604500D03*
X575000Y618000D03*
X561000Y618000D03*
M02*
